taxon	age
Tubiluchus_troglodytes_Priapulida	0.0
Cricocosmia_jinningensis	514.5
Aysheaia_pendunculata	509
Onychodictyon_ferox	514.5
Onychodictyon_gracilis	514.5
Diania_cactiformis	517.5
Xenusion_auerswaldae	525
Paucipodia_inermis	518
Microdictyon_sinicum	512.5
Cardiodictyon_catenulum	514.5
Hallucigenia_sparsa	510
Hallucigenia_fortis	510
Hallucigenia_hongmeia	510
Luolishania_longicruris	514.5
Collinsium_ciliosum	519
Collins_monster_Burgess_Shale	519
Collins_monster_Emu_Bay	519
Acinocricus_stichus	509
Orstenotubulus_evamuellerae	503
Antennacanthopodia_gracilis	512.5
Tertiapatus_dominicanus	35
Euperipatoides_Peripatopsidae	0.0	
Metaperipatus_blainvillei_Peripatopsidae	0.0
Epiperipatus_biolleyi_Peripatidae	0.0
Batillipes_pennaki_Heterotardigrada	0.0
Echiniscus_testudo_Heterotardigrada	0.0
Actinarctus_doryphorus_Heterotardigrada	0.0
Macrobiotus_cf_harmsworthi_Eutardigrada	0.0
Hypsibius_dujardini_Eutardigrada	0.0
Siberian_Orsten_tardigrade	520
Megadictyon_haikouensis	518
Jianshanopodia_decora	514.5
Hadranax_augustus	518
Kerygmachela_kierkegaardi	518
Pambdelurion_whittingtoni	518
Opabinia_regalis	509
Anomalocaris_canadensis	510.5
Peytoia_nathorsti	509
Hurdia_victoria	509
Aegirocassis_benmoulae	481
Lyrarapax_unguispinus	517.5
Schinderhannes_bartlesi	400
Fuxianhuia_xiaoshibaensis	514.5
Chengjiangocaris_kunmingensis	510.5
Leanchoilia_superlata	510.5
Alalcomenaeus_sp	509
Misszhouia_longicaudata	506.5
Kuamaia_lata	522.5
Limulus_polyphemus	0.0	
Triops_cancriformis	0.0	